…
    aggregate_lookup_fline <- dplyr::select(st_drop_geometry(aggregated$fline_sets), ID, set) %>%
      tidyr::unnest(cols = set) %>%
      dplyr::rename(aggregated_flowline_ID = ID, reconciled_ID = set)

    aggregate_lookup_catchment <- dplyr::select(st_drop_geometry(aggregated$cat_sets), ID, set) %>%
      tidyr::unnest(cols = set) %>%
      dplyr::rename(aggregated_catchment_ID = ID, reconciled_ID = set)

    (lookup_table <- tibble::tibble(NHDPlusV2_COMID = input_ids) %>%
      dplyr::left_join(refactor_lookup, by = "NHDPlusV2_COMID") %>%
      dplyr::left_join(aggregate_lookup_fline, by = "reconciled_ID") %>%
      dplyr::left_join(aggregate_lookup_catchment, by = "reconciled_ID"))
    #> # A tibble: 104 x 5
    #>    NHDPlusV2_COMID reconciled_ID member_COMID aggregated_flowline_~ aggregated_catchment~
    #>              <int>         <dbl> <chr>                        <dbl>                 <dbl>
    #>  1         5329303             1 5329303                          1                     1
    #>  2         5329293             2 5329293                          2                     2
    #>  3         5329305             2 5329305.3                        2                     2
    #>  4         5329305            26 5329305.1                        2                     2
    #>  5         5329305            27 5329305.2                        2                     2
    #>  6         5329317            28 5329317.1                        2                     2
    #>  7         5329317            29 5329317.2                        2                     2
    #>  8         5329317            30 5329317.3                        2                     2
    #>  9         5329315            31 5329315.1                       31                    31
    #> 10         5329315            32 5329315.2                        2                     2
    #> # ... with 94 more rows
…
